D:\AUTOMATION\BnVFW\V5\src\test\java\SA\stepDefinitions\REGstepDefinitions.java
D:\AUTOMATION\BnVFW\V5\src\test\java\SA\stepDefinitions\LGNstepDefinitions.java
D:\AUTOMATION\BnVFW\V5\src\test\java\SA\Runner\LGN_Runner.java
D:\AUTOMATION\BnVFW\V5\src\test\java\SA\Muster_Runner.java
D:\AUTOMATION\BnVFW\V5\src\test\java\SA\Runner\REG_Runner.java
