<story path="stories/TC_003_CreateTopicTitle4CharsLength.story" title="">
<meta>
<property keyword="@" name="topic" value=""/>
</meta>
<narrative keyword="Narrative:">
  <inOrderTo keyword="As a">user</inOrderTo>
  <asA keyword="I want to">perform an action</asA>
  <iWantTo keyword="So that">I can achieve a business goal</iWantTo>
</narrative>
<scenario keyword="Scenario:" title="User try to create topic with Title length less than minimal alert">
<step outcome="successful">Given Element <parameter>createTopicButton</parameter> is present</step>
<step outcome="failed" keyword="FAILED">When Click <parameter>createTopicButton</parameter> element<failure>org.openqa.selenium.ElementClickInterceptedException: Element &lt;span class=&quot;d-button-label&quot;&gt; is not clickable at point (1452,207) because another element &lt;div class=&quot;modal-backdrop in&quot;&gt; obscures it
Build info: version: &apos;3.14.0&apos;, revision: &apos;aacccce0&apos;, time: &apos;2018-08-02T20:19:58.91Z&apos;
System info: host: &apos;VESELA-PC&apos;, ip: &apos;192.168.0.192&apos;, os.name: &apos;Windows 10&apos;, os.arch: &apos;x86&apos;, os.version: &apos;10.0&apos;, java.version: &apos;1.8.0_221&apos;
Driver info: org.openqa.selenium.firefox.FirefoxDriver
Capabilities {acceptInsecureCerts: true, browserName: firefox, browserVersion: 69.0.3, javascriptEnabled: true, moz:accessibilityChecks: false, moz:buildID: 20191009172106, moz:geckodriverVersion: 0.26.0, moz:headless: false, moz:processID: 12492, moz:profile: C:\Users\Vesela\AppData\Loc..., moz:shutdownTimeout: 60000, moz:useNonSpecCompliantPointerOrigin: false, moz:webdriverClick: true, pageLoadStrategy: normal, platform: WINDOWS, platformName: WINDOWS, platformVersion: 10.0, rotatable: false, setWindowRect: true, strictFileInteractability: false, timeouts: {implicit: 0, pageLoad: 300000, script: 30000}, unhandledPromptBehavior: dismiss and notify}
Session ID: 2823adde-f6f4-468e-b9e1-60b593f3971a</failure></step>
<step outcome="notPerformed" keyword="NOT PERFORMED">And Type <parameter>topicTitle4chars</parameter> in <parameter>createTopicTitleField</parameter> field</step>
<step outcome="notPerformed" keyword="NOT PERFORMED">And Type <parameter>textBaseLength</parameter> in <parameter>createTopicTextArea</parameter> field</step>
<step outcome="notPerformed" keyword="NOT PERFORMED">And Click <parameter>createNewTopicButton</parameter> element</step>
<step outcome="notPerformed" keyword="NOT PERFORMED">Then Element <parameter>topicTitleLengthOutOfBoundaryAlert</parameter> is present</step>
</scenario>
</story>
