<story path="stories/SearchPage.story" title="">
<meta>
<property keyword="@" name="googleSearchPage" value=""/>
</meta>
<narrative keyword="Narrative:">
  <inOrderTo keyword="As a">user</inOrderTo>
  <asA keyword="I want to">perform an action</asA>
  <iWantTo keyword="So that">I can achieve a business goal</iWantTo>
</narrative>
<scenario keyword="Scenario:" title="scenario description">
<step outcome="successful">Given Click <parameter>search.Input</parameter> element</step>
<step outcome="successful">When Type <parameter>Facebook</parameter> in <parameter>search.Input</parameter> field</step>
<step outcome="successful">Then Element <parameter>search.Result</parameter> is present</step>
</scenario>
</story>
